<?xml version="1.0" encoding="UTF-8" standalone="no"?>
<svg xmlns:xlink="http://www.w3.org/1999/xlink" height="5.9px" width="6.05px" xmlns="http://www.w3.org/2000/svg">
  <g transform="matrix(1.0, 0.0, 0.0, 1.0, 0.0, 0.0)">
    <path d="M5.75 5.1 Q3.7 5.1 3.7 3.75 3.7 1.2 5.7 0.85 4.45 2.25 4.45 3.25 4.45 4.25 6.05 4.7 L6.0 5.0 5.75 5.1 M0.55 1.75 L3.05 1.1 4.55 0.0 4.8 0.25 3.7 1.45 Q2.4 2.45 1.1 2.45 L0.05 2.4 0.0 2.1 Q0.0 1.8 0.55 1.75 M2.55 4.6 L0.35 3.65 Q0.9 3.3 1.45 3.3 3.35 3.3 3.95 5.55 L3.8 5.85 3.65 5.9 2.55 4.6" fill="#a36a6a" fill-rule="evenodd" stroke="none"/>
  </g>
</svg>
