<?xml version="1.0" encoding="UTF-8" standalone="no"?>
<svg xmlns:xlink="http://www.w3.org/1999/xlink" height="47.5px" width="29.8px" xmlns="http://www.w3.org/2000/svg">
  <g transform="matrix(1.0, 0.0, 0.0, 1.0, 0.0, 0.0)">
    <path d="M18.85 1.15 L19.1 1.2 19.15 1.2 Q20.85 1.8 21.25 4.55 L21.95 8.7 21.95 8.65 22.1 9.3 22.15 9.65 22.4 10.5 22.5 10.85 22.55 10.9 22.55 10.95 22.25 10.95 18.5 1.1 18.85 1.15 M17.1 10.45 Q18.05 9.7 18.8 9.7 19.55 9.7 20.35 10.9 20.2 11.35 19.5 11.35 L17.1 10.45 M1.5 33.0 L2.0 32.3 Q3.35 30.75 4.85 30.75 7.2 30.75 10.65 34.6 L10.4 35.15 10.1 35.3 10.05 35.3 10.0 35.35 9.9 35.2 8.75 34.2 8.6 34.1 Q7.3 33.35 5.4 33.05 L3.25 33.35 2.0 33.8 3.15 33.6 Q2.8 34.45 2.3 34.7 L1.65 33.35 1.5 33.0 M5.8 29.0 L5.45 29.1 Q4.15 29.1 4.15 28.2 6.25 25.45 7.45 24.25 5.8 28.2 5.8 28.9 L5.8 29.0 M24.4 41.8 L26.9 40.75 Q27.25 40.6 27.35 39.85 L27.6 37.3 27.2 35.1 Q27.6 34.8 28.0 34.65 L28.3 34.6 28.45 34.6 28.5 34.6 Q29.35 34.6 29.4 35.75 28.8 36.35 28.45 37.55 28.05 38.95 28.05 41.15 28.05 42.65 28.3 43.6 28.5 44.65 29.0 45.1 L29.15 44.75 28.95 43.9 Q29.25 44.35 29.25 45.35 29.25 46.9 28.1 46.9 27.45 46.9 27.15 46.3 L27.2 45.05 27.2 44.6 Q27.0 43.35 25.95 43.35 25.25 43.35 24.3 44.15 L23.85 44.55 23.55 44.8 22.45 46.05 Q20.75 47.5 19.2 47.5 18.15 47.5 18.15 46.95 18.15 46.6 19.9 45.6 L18.6 46.45 18.65 46.6 20.0 46.0 22.2 44.55 22.85 43.95 24.05 42.35 24.4 41.8" fill="#e0cbcb" fill-rule="evenodd" stroke="none"/>
    <path d="M21.95 8.7 L21.25 4.55 Q20.85 1.8 19.15 1.2 L19.1 1.2 18.85 1.15 18.3 1.05 18.1 1.05 16.85 1.25 16.25 1.3 Q15.6 1.3 15.6 0.85 15.6 0.0 18.1 0.0 22.2 0.0 22.3 5.3 L22.8 10.8 22.8 11.2 22.7 11.3 22.7 11.25 22.55 10.95 22.55 10.9 22.5 10.85 22.4 10.5 22.15 9.65 22.1 9.3 21.95 8.7 M17.05 1.9 L17.1 1.75 Q17.95 2.3 18.45 4.3 18.95 6.25 14.1 10.85 L13.9 11.05 Q14.0 10.55 15.95 7.9 17.85 5.2 17.35 3.6 16.95 2.25 17.05 1.9 M16.3 11.0 L15.8 11.3 16.85 10.1 Q17.85 9.2 18.55 9.2 L18.7 9.2 19.1 9.25 19.2 9.3 19.35 9.35 20.8 10.75 21.1 11.55 21.15 11.55 21.45 13.15 21.45 13.2 20.35 10.9 Q19.55 9.7 18.8 9.7 18.05 9.7 17.1 10.45 L17.05 10.45 17.0 10.5 16.3 11.0 M5.15 19.75 L5.15 20.15 5.0 21.6 Q4.55 23.5 3.15 26.2 1.1 30.05 1.1 31.05 1.1 31.95 1.5 33.0 L1.65 33.35 2.3 34.7 2.35 34.75 2.15 34.9 Q0.35 34.9 0.0 31.0 0.0 28.85 2.5 25.55 5.05 22.3 5.0 19.5 L5.1 19.5 5.15 19.75 M7.15 29.9 L7.5 30.25 7.9 30.65 8.0 30.75 Q7.0 30.45 6.5 30.05 5.85 29.6 5.8 29.0 L5.8 28.9 Q5.8 28.2 7.45 24.25 L7.6 23.95 7.95 23.05 8.15 22.6 8.2 22.5 8.25 22.4 8.4 22.4 8.45 22.7 Q8.45 23.8 7.35 26.0 6.25 28.15 6.25 28.85 L7.15 29.9 M25.35 38.25 L25.65 37.6 25.8 37.75 25.55 38.7 24.4 41.8 24.05 42.35 22.85 43.95 22.2 44.55 20.0 46.0 18.65 46.6 18.6 46.45 19.9 45.6 Q21.9 44.05 23.25 41.95 24.2 40.6 25.35 38.25 M22.45 46.05 L23.55 44.8 23.85 44.55 24.3 44.15 Q25.25 43.35 25.95 43.35 27.0 43.35 27.2 44.6 L27.2 45.05 27.15 46.3 26.95 46.45 Q26.75 46.15 26.7 44.8 26.65 43.85 25.7 43.85 24.65 43.85 22.3 46.4 L22.25 46.35 22.45 46.05 M28.95 43.9 L29.15 44.75 29.0 45.1 Q28.5 44.65 28.3 43.6 28.05 42.65 28.05 41.15 28.05 38.95 28.45 37.55 28.8 36.35 29.4 35.75 L29.8 35.4 29.65 36.2 28.7 41.0 Q28.7 42.65 28.95 43.9 M8.75 34.2 L9.9 35.2 10.0 35.35 10.2 35.6 10.2 35.75 10.0 35.8 Q6.85 33.6 3.15 33.6 L2.0 33.8 3.25 33.35 5.4 33.05 Q7.3 33.35 8.6 34.1 L8.75 34.2" fill="#a36a6a" fill-rule="evenodd" stroke="none"/>
    <path d="M18.85 1.15 L18.5 1.1 22.25 10.95 22.55 10.95 22.7 11.25 Q22.4 11.75 21.55 11.75 21.4 11.75 21.15 11.55 L21.1 11.55 20.8 10.75 19.35 9.35 19.2 9.3 19.1 9.25 18.7 9.2 18.55 9.2 Q17.85 9.2 16.85 10.1 L15.8 11.3 16.3 11.0 15.95 11.25 Q15.0 11.95 14.6 11.85 14.15 11.75 14.1 10.85 18.95 6.25 18.45 4.3 17.95 2.3 17.1 1.75 L17.05 1.9 17.1 2.65 16.35 1.3 16.85 1.25 18.1 1.05 18.3 1.05 18.85 1.15 M5.15 19.75 Q5.5 18.4 6.7 18.4 8.95 18.4 8.7 21.0 L8.25 22.4 8.2 22.5 8.15 22.6 7.95 23.05 7.55 23.85 7.6 23.95 7.45 24.25 Q6.25 25.45 4.15 28.2 4.15 29.1 5.45 29.1 L5.8 29.0 Q5.85 29.6 6.5 30.05 7.0 30.45 8.0 30.75 L7.9 30.65 7.5 30.25 7.15 29.9 Q9.0 30.1 10.65 34.35 L10.4 35.15 10.65 34.6 Q7.2 30.75 4.85 30.75 3.35 30.75 2.0 32.3 L1.5 33.0 Q1.1 31.95 1.1 31.05 1.1 30.05 3.15 26.2 4.55 23.5 5.0 21.6 L5.15 20.15 5.15 19.75 M28.0 34.65 Q27.6 34.8 27.2 35.1 L27.6 37.3 27.35 39.85 Q27.25 40.6 26.9 40.75 L24.4 41.8 25.55 38.7 25.8 37.75 25.65 37.6 25.35 38.25 Q25.35 37.55 26.2 36.3 27.0 34.95 28.0 34.65" fill="#ffffff" fill-rule="evenodd" stroke="none"/>
  </g>
</svg>
